COMPSCIX 415.2 Homework 3
…
filter(mpg, cyl == 8)

## # A tibble: 70 x 11
##    manufacturer              model displ  year   cyl      trans   drv
##           <chr>              <chr> <dbl> <int> <int>      <chr> <chr>
##  1         audi         a6 quattro   4.2  2008     8   auto(s6)     4
##  2    chevrolet c1500 suburban 2wd   5.3  2008     8   auto(l4)     r
##  3    chevrolet c1500 suburban 2wd   5.3  2008     8   auto(l4)     r
##  4    chevrolet c1500 suburban 2wd   5.3  2008     8   auto(l4)     r
##  5    chevrolet c1500 suburban 2wd   5.7  1999     8   auto(l4)     r
##  6    chevrolet c1500 suburban 2wd   6.0  2008     8   auto(l4)     r
##  7    chevrolet           corvette   5.7  1999     8 manual(m6)     r
##  8    chevrolet           corvette   5.7  1999     8   auto(l4)     r
##  9    chevrolet           corvette   6.2  2008     8 manual(m6)     r
## 10    chevrolet           corvette   6.2  2008     8   auto(s6)     r
## # ... with 60 more rows, and 4 more variables: cty <int>, hwy <int>,
## #   fl <chr>, class <chr>

filter(diamonds, carat > 3)

## # A tibble: 32 x 10
##    carat     cut color clarity depth table price     x     y     z
##    <dbl>   <ord> <ord>   <ord> <dbl> <dbl> <int> <dbl> <dbl> <dbl>
##  1  3.01 Premium     I      I1  62.7    58  8040  9.10  8.97  5.67
##  2  3.11    Fair     J      I1  65.9    57  9823  9.15  9.02  5.98
##  3  3.01 Premium     F      I1  62.2    56  9925  9.24  9.13  5.73
##  4  3.05 Premium     E      I1  60.9    58 10453  9.26  9.25  5.66
##  5  3.02    Fair     I      I1  65.2    56 10577  9.11  9.02  5.91
##  6  3.01    Fair     H      I1  56.1    62 10761  9.54  9.38  5.31
##  7  3.65    Fair     H      I1  67.1    53 11668  9.53  9.48  6.38
##  8  3.24 Premium     H      I1  62.1    58 12300  9.44  9.40  5.85
##  9  3.22   Ideal     I      I1  62.6    55 12545  9.49  9.42  5.92
## 10  3.50   Ideal     H      I1  62.8    57 12587  9.65  9.59  6.03
## # ... with 22 more rows

5.2.4 Exercises

1.1.Find all flights that had an arrival delay of two or more hours

filter(flights, arr_delay >= 120)

## # A tibble: 10,200 x 19
##     year month   day dep_time sched_dep_time dep_delay arr_time
##    <int> <int> <int>    <int>          <int>     <dbl>    <int>
##  1  2013     1     1      811            630       101     1047
##  2  2013     1     1      848           1835       853     1001
##  3  2013     1     1      957            733       144     1056
##  4  2013     1     1     1114            900       134     1447
##  5  2013     1     1     1505           1310       115     1638
##  6  2013     1     1     1525           1340       105     1831
##  7  2013     1     1     1549           1445        64     1912
##  8  2013     1     1     1558           1359       119     1718
##  9  2013     1     1     1732           1630        62     2028
## 10  2013     1     1     1803           1620       103     2008
## # ... with 10,190 more rows, and 12 more variables: sched_arr_time <int>,
## #   arr_delay <dbl>, carrier <chr>, flight <int>, tailnum <chr>,
## #   origin <chr>, dest <chr>, air_time <dbl>, distance <dbl>, hour <dbl>,
## #   minute <dbl>, time_hour <dttm>

1.2.Flew to Houston (IAH or HOU)

filter(flights, dest == "IAH" | dest == "HOU")

## # A tibble: 9,313 x 19
##     year month   day dep_time sched_dep_time dep_delay arr_time
##    <int> <int> <int>    <int>          <int>     <dbl>    <int>
##  1  2013     1     1      517            515         2      830
##  2  2013     1     1      533            529         4      850
##  3  2013     1     1      623            627        -4      933
##  4  2013     1     1      728            732        -4     1041
##  5  2013     1     1      739            739         0     1104
##  6  2013     1     1      908            908         0     1228
##  7  2013     1     1     1028           1026         2     1350
##  8  2013     1     1     1044           1045        -1     1352
##  9  2013     1     1     1114            900       134     1447
## 10  2013     1     1     1205           1200         5     1503
## # ... with 9,303 more rows, and 12 more variables: sched_arr_time <int>,
## #   arr_delay <dbl>, carrier <chr>, flight <int>, tailnum <chr>,
## #   origin <chr>, dest <chr>, air_time <dbl>, distance <dbl>, hour <dbl>,
## #   minute <dbl>, time_hour <dttm>

1.3.Were operated by United, American, or Delta

filter(flights, carrier == "UA" | carrier == "AA" | carrier == "DL")

## # A tibble: 139,504 x 19
##     year month   day dep_time sched_dep_time dep_delay arr_time
##    <int> <int> <int>    <int>          <int>     <dbl>    <int>
##  1  2013     1     1      517            515         2      830
##  2  2013     1     1      533            529         4      850
##  3  2013     1     1      542            540         2      923
##  4  2013     1     1      554            600        -6      812
##  5  2013     1     1      554            558        -4      740
##  6  2013     1     1      558            600        -2      753
##  7  2013     1     1      558            600        -2      924
##  8  2013     1     1      558            600        -2      923
##  9  2013     1     1      559            600        -1      941
## 10  2013     1     1      559            600        -1      854
## # ... with 139,494 more rows, and 12 more variables: sched_arr_time <int>,
## #   arr_delay <dbl>, carrier <chr>, flight <int>, tailnum <chr>,
## #   origin <chr>, dest <chr>, air_time <dbl>, distance <dbl>, hour <dbl>,
## #   minute <dbl>, time_hour <dttm>

1.4.Departed in summer (July, August, and September)

filter(flights, month == 7 | month == 8 | month == 9)

## # A tibble: 86,326 x 19
##     year month   day dep_time sched_dep_time dep_delay arr_time
##    <int> <int> <int>    <int>          <int>     <dbl>    <int>
##  1  2013     7     1        1           2029       212      236
##  2  2013     7     1        2           2359         3      344
##  3  2013     7     1       29           2245       104      151
##  4  2013     7     1       43           2130       193      322
##  5  2013     7     1       44           2150       174      300
##  6  2013     7     1       46           2051       235      304
##  7  2013     7     1       48           2001       287      308
##  8  2013     7     1       58           2155       183      335
##  9  2013     7     1      100           2146       194      327
## 10  2013     7     1      100           2245       135      337
## # ... with 86,316 more rows, and 12 more variables: sched_arr_time <int>,
## #   arr_delay <dbl>, carrier <chr>, flight <int>, tailnum <chr>,
## #   origin <chr>, dest <chr>, air_time <dbl>, distance <dbl>, hour <dbl>,
## #   minute <dbl>, time_hour <dttm>
…
1.6.Were delayed by at least an hour, but made up over 30 minutes in flight

filter(flights, dep_delay >= 60, arr_time == dep_time + air_time - 30 )

## # A tibble: 33 x 19
##     year month   day dep_time sched_dep_time dep_delay arr_time
##    <int> <int> <int>    <int>          <int>     <dbl>    <int>
##  1  2013     1     1     1930           1745       105     2233
##  2  2013     1     4     1703           1545        78     2001
##  3  2013     1     7     1323            830       293     1604
##  4  2013     1    13     1235            859       216     1502
##  5  2013     1    31     2025           1815       130     2313
##  6  2013    10     8      925            810        75     1222
##  7  2013    11    16      915            625       170     1221
##  8  2013    11    20     1221           1030       111     1550
##  9  2013    12     1     1803           1645        78     2118
## 10  2013    12     6     1945           1825        80     2229
## # ... with 23 more rows, and 12 more variables: sched_arr_time <int>,
## #   arr_delay <dbl>, carrier <chr>, flight <int>, tailnum <chr>,
## #   origin <chr>, dest <chr>, air_time <dbl>, distance <dbl>, hour <dbl>,
## #   minute <dbl>, time_hour <dttm>

1.7.Departed between midnight and 6am (inclusive)

filter(flights, dep_time == 2400  | dep_time <= 600)

## # A tibble: 9,373 x 19
##     year month   day dep_time sched_dep_time dep_delay arr_time
##    <int> <int> <int>    <int>          <int>     <dbl>    <int>
##  1  2013     1     1      517            515         2      830
##  2  2013     1     1      533            529         4      850
##  3  2013     1     1      542            540         2      923
##  4  2013     1     1      544            545        -1     1004
##  5  2013     1     1      554            600        -6      812
##  6  2013     1     1      554            558        -4      740
##  7  2013     1     1      555            600        -5      913
##  8  2013     1     1      557            600        -3      709
##  9  2013     1     1      557            600        -3      838
## 10  2013     1     1      558            600        -2      753
## # ... with 9,363 more rows, and 12 more variables: sched_arr_time <int>,
## #   arr_delay <dbl>, carrier <chr>, flight <int>, tailnum <chr>,
## #   origin <chr>, dest <chr>, air_time <dbl>, distance <dbl>, hour <dbl>,
## #   minute <dbl>, time_hour <dttm>

2.Another useful dplyr filtering helper is between(). What does it do? Can you use it to simplify the code needed to answer the previous challenges?

Between() detects values in numeric vector that fall in a specified range. between(x,left,right) . x is a numeric vector of values. left, right are Boundary values

Yes , between() can be used to simplify the code for the previous questions. Below r chunk shows simplified code for question 1.4 above.

1.4.Departed in summer (July, August, and September)

flights %>% filter(between(month, 1 , 3) )

## # A tibble: 80,789 x 19
##     year month   day dep_time sched_dep_time dep_delay arr_time
##    <int> <int> <int>    <int>          <int>     <dbl>    <int>
##  1  2013     1     1      517            515         2      830
##  2  2013     1     1      533            529         4      850
##  3  2013     1     1      542            540         2      923
##  4  2013     1     1      544            545        -1     1004
##  5  2013     1     1      554            600        -6      812
##  6  2013     1     1      554            558        -4      740
##  7  2013     1     1      555            600        -5      913
##  8  2013     1     1      557            600        -3      709
##  9  2013     1     1      557            600        -3      838
## 10  2013     1     1      558            600        -2      753
## # ... with 80,779 more rows, and 12 more variables: sched_arr_time <int>,
## #   arr_delay <dbl>, carrier <chr>, flight <int>, tailnum <chr>,
## #   origin <chr>, dest <chr>, air_time <dbl>, distance <dbl>, hour <dbl>,
## #   minute <dbl>, time_hour <dttm>

3.How many flights have a missing dep_time? What other variables are missing? What might these rows represent?

8255 flights have missing departure time.

if a flight is missing departure time, it means the flight was scheduled to fly but did not fly for some reasons. So there is a chance that other variables involving time will have missing values too.

Variables with missing variables are dep_time, sched_dep_time, dep_delay, arr_time, sched_arr_time, arr_delay, air_time. These rows with missing variables represent flights which did not fly.

filter(flights, is.na(dep_time))

## # A tibble: 8,255 x 19
##     year month   day dep_time sched_dep_time dep_delay arr_time
##    <int> <int> <int>    <int>          <int>     <dbl>    <int>
##  1  2013     1     1       NA           1630        NA       NA
##  2  2013     1     1       NA           1935        NA       NA
##  3  2013     1     1       NA           1500        NA       NA
##  4  2013     1     1       NA            600        NA       NA
##  5  2013     1     2       NA           1540        NA       NA
##  6  2013     1     2       NA           1620        NA       NA
##  7  2013     1     2       NA           1355        NA       NA
##  8  2013     1     2       NA           1420        NA       NA
##  9  2013     1     2       NA           1321        NA       NA
## 10  2013     1     2       NA           1545        NA       NA
## # ... with 8,245 more rows, and 12 more variables: sched_arr_time <int>,
## #   arr_delay <dbl>, carrier <chr>, flight <int>, tailnum <chr>,
## #   origin <chr>, dest <chr>, air_time <dbl>, distance <dbl>, hour <dbl>,
## #   minute <dbl>, time_hour <dttm>

filter(flights, is.na(dep_time) | is.na(arr_delay) | is.na(arr_time) | is.na(dep_delay))

## # A tibble: 9,430 x 19
##     year month   day dep_time sched_dep_time dep_delay arr_time
##    <int> <int> <int>    <int>          <int>     <dbl>    <int>
##  1  2013     1     1     1525           1530        -5     1934
##  2  2013     1     1     1528           1459        29     2002
##  3  2013     1     1     1740           1745        -5     2158
##  4  2013     1     1     1807           1738        29     2251
##  5  2013     1     1     1939           1840        59       29
##  6  2013     1     1     1952           1930        22     2358
##  7  2013     1     1     2016           1930        46       NA
##  8  2013     1     1       NA           1630        NA       NA
##  9  2013     1     1       NA           1935        NA       NA
## 10  2013     1     1       NA           1500        NA       NA
## # ... with 9,420 more rows, and 12 more variables: sched_arr_time <int>,
## #   arr_delay <dbl>, carrier <chr>, flight <int>, tailnum <chr>,
## #   origin <chr>, dest <chr>, air_time <dbl>, distance <dbl>, hour <dbl>,
## #   minute <dbl>, time_hour <dttm>
…
NA * 0 is tricky, I would think NA (which could hold any number) multiplied by 0 would be 0, but R shows a different answer. Unable to explain why is it so.

> NA * 0

[1] NA

5.4.1 Exercises

1.Brainstorm as many ways as possible to select dep_time, dep_delay, arr_time, and arr_delay from flights.

I have used select() and one_of()

select(flights, dep_time, dep_delay, arr_time, arr_delay)

## # A tibble: 336,776 x 4
##    dep_time dep_delay arr_time arr_delay
##       <int>     <dbl>    <int>     <dbl>
##  1      517         2      830        11
##  2      533         4      850        20
##  3      542         2      923        33
##  4      544        -1     1004       -18
##  5      554        -6      812       -25
##  6      554        -4      740        12
##  7      555        -5      913        19
##  8      557        -3      709       -14
##  9      557        -3      838        -8
## 10      558        -2      753         8
## # ... with 336,766 more rows

vars <- c("dep_time", "dep_delay", "arr_time", "arr_delay")
select(flights,one_of(vars))

## # A tibble: 336,776 x 4
##    dep_time dep_delay arr_time arr_delay
##       <int>     <dbl>    <int>     <dbl>
##  1      517         2      830        11
##  2      533         4      850        20
##  3      542         2      923        33
##  4      544        -1     1004       -18
##  5      554        -6      812       -25
##  6      554        -4      740        12
##  7      555        -5      913        19
##  8      557        -3      709       -14
##  9      557        -3      838        -8
## 10      558        -2      753         8
## # ... with 336,766 more rows

2.What happens if you include the name of a variable multiple times in a select() call?

In the following r chunk, I tried to include variable dep_time multiple times in the select() call, but R ignored the repetations in its result.

select(flights, dep_time, dep_time, dep_time)

## # A tibble: 336,776 x 1
##    dep_time
##       <int>
##  1      517
##  2      533
##  3      542
##  4      544
##  5      554
##  6      554
##  7      555
##  8      557
##  9      557
## 10      558
## # ... with 336,766 more rows

3.What does the one_of() function do? Why might it be helpful in conjunction with this vector?

vars <- c(year, month, day, dep_delay, arr_delay)

one_of() lets us select variables using a character vector of their names instead of putting their names into the select() call. one_of goes thru the data frame and asks whether the variable name is one of the names listed in the character vector.

vars <- c("year", "month", "day", "dep_delay", "arr_delay")
select(flights,one_of(vars))

## # A tibble: 336,776 x 5
##     year month   day dep_delay arr_delay
##    <int> <int> <int>     <dbl>     <dbl>
##  1  2013     1     1         2        11
##  2  2013     1     1         4        20
##  3  2013     1     1         2        33
##  4  2013     1     1        -1       -18
##  5  2013     1     1        -6       -25
##  6  2013     1     1        -4        12
##  7  2013     1     1        -5        19
##  8  2013     1     1        -3       -14
##  9  2013     1     1        -3        -8
## 10  2013     1     1        -2         8
## # ... with 336,766 more rows

4.Does the result of running the following code surprise you? How do the select helpers deal with case by default? How can you change that default?

The following code selects the columns with names that contain the word time, e.g arr_time, dep_time, sched_dep_time.

Yes, it does surprise me with its power, so instead of specifiying the time variables one after another with OR condition in between, this simple clause contains(TIME) helps us write a cleaner code.

select(flights, contains("TIME"))

## # A tibble: 336,776 x 6
##    dep_time sched_dep_time arr_time sched_arr_time air_time
##       <int>          <int>    <int>          <int>    <dbl>
##  1      517            515      830            819      227
##  2      533            529      850            830      227
##  3      542            540      923            850      160
##  4      544            545     1004           1022      183
##  5      554            600      812            837      116
##  6      554            558      740            728      150
##  7      555            600      913            854      158
##  8      557            600      709            723       53
##  9      557            600      838            846      140
## 10      558            600      753            745      138
## # ... with 336,766 more rows, and 1 more variables: time_hour <dttm>
