COMPSCIX 415.2 Homework 7
…
#Is the model a good fit (to the training set)?
#Yes. For the training set train_set_1, R squared is 0.8099927 (close to 1) and p value is 0 which suggests a good fit.

Exercise 5

Evaluate the model on test_set using the root mean squared error (RMSE). Use the predict function to get the model predictions for the testing set. Recall that RMSE is the square root of the mean of the squared errors:

test_set_1  <- test_set %>% mutate(neigh_fct = factor(Neighborhood, ordered = FALSE))
#test_set_1

distPred <- predict(mod_0, test_set_1)
tidy(distPred)

## # A tibble: 438 x 2
##    names         x
##    <chr>     <dbl>
##  1     1 218474.69
##  2     2 219273.66
##  3     3 223245.77
##  4     4 222039.52
##  5     5 204914.78
##  6     6 245503.00
##  7     7 112223.22
##  8     8 137145.83
##  9     9  98786.45
## 10    10 174736.69
## # ... with 428 more rows
…
Exercise 7

One downside of the linear model is that it is sensitive to unusual values because the distance incorporates a squared term. Fit a linear model to the simulated data below, and visualise the results. Rerun a few times to generate different simulated datasets. What do you notice about the model?

#The rt() function in the below code generates random deviates. After running the code a few times, I see that rt() is creating unusual/extreme values of y for same value of x.  When the linear model is fit to the simulated data, the results are varying widely. I observe that for simulated data with not so extreme y values, the linear regression line fits nicely, in this case the data points are closely dispered around the line of fit and the p value is close to 0 and R square is high(close to 1).
#For simulated data with extreme/unusual y values, the linear regression line doesnt fit nicely with all the data points and  there are outliers in the data points, this impacts the slope and the intercept and the p value rises and R square is low, suggesting a not so good fit with the linear regression model.

#In the below instance of simulated data, there are unusual y values. The p-value for the Intercept is 1.676802e-04. The p-value for x is 2.821387e-06. The p value for the model is 2.821387e-06. The R squared is 0.5491078.  
sim1a <- tibble(
  x = rep(1:10, each = 3),
  y = x * 1.5 + 6 + rt(length(x), df = 2)
)
sim1a

## # A tibble: 30 x 2
##        x         y
##    <int>     <dbl>
##  1     1  9.772215
##  2     1  7.961392
##  3     1  7.581731
##  4     2  9.023611
##  5     2  7.398988
##  6     2  9.254147
##  7     3 10.453799
##  8     3  9.308378
##  9     3 10.168217
## 10     4 10.284657
## # ... with 20 more rows
…
