COMPSCIX 415.2 Homework 4
…
Section 12.4.3: #1 and #2 only

library(nycflights13)
library(tidyverse)

Section 5.6.7: #2

Come up with another approach that will give you the same output as not_cancelled %>% count(dest) and not_cancelled %>% count(tailnum, wt = distance) (without using count()).

not_cancelled <- flights %>%
                filter(!is.na(dep_delay))
                  
not_cancelled

## # A tibble: 328,521 x 19
##     year month   day dep_time sched_dep_time dep_delay arr_time
##    <int> <int> <int>    <int>          <int>     <dbl>    <int>
##  1  2013     1     1      517            515         2      830
##  2  2013     1     1      533            529         4      850
##  3  2013     1     1      542            540         2      923
##  4  2013     1     1      544            545        -1     1004
##  5  2013     1     1      554            600        -6      812
##  6  2013     1     1      554            558        -4      740
##  7  2013     1     1      555            600        -5      913
##  8  2013     1     1      557            600        -3      709
##  9  2013     1     1      557            600        -3      838
## 10  2013     1     1      558            600        -2      753
## # ... with 328,511 more rows, and 12 more variables: sched_arr_time <int>,
## #   arr_delay <dbl>, carrier <chr>, flight <int>, tailnum <chr>,
## #   origin <chr>, dest <chr>, air_time <dbl>, distance <dbl>, hour <dbl>,
## #   minute <dbl>, time_hour <dttm>

#dest_using_count <- not_cancelled %>% count(dest)
#dest_using_count

#tailnum_dist_using_count <- not_cancelled %>% count(tailnum, wt = distance)
#tailnum_dist_using_count

flight_by_dest <- not_cancelled %>%
                  group_by(dest) %>%
                  summarise(count_by_dest = n())
flight_by_dest

## # A tibble: 104 x 2
##     dest count_by_dest
##    <chr>         <int>
##  1   ABQ           254
##  2   ACK           265
##  3   ALB           419
##  4   ANC             8
##  5   ATL         16898
##  6   AUS          2418
##  7   AVL           263
##  8   BDL           412
##  9   BGR           360
## 10   BHM           272
## # ... with 94 more rows

flight_by_tailnum_dist <- not_cancelled %>%
                          group_by(tailnum) %>%
                          summarise(count_by_tailnum = n(), wt = sum(distance))

flight_by_tailnum_dist

## # A tibble: 4,037 x 3
##    tailnum count_by_tailnum     wt
##      <chr>            <int>  <dbl>
##  1  D942DN                4   3418
##  2  N0EGMQ              354 240626
##  3  N10156              146 110389
##  4  N102UW               48  25722
##  5  N103US               46  24619
##  6  N104UW               47  25157
##  7  N10575              272 141475
##  8  N105UW               45  23618
##  9  N107US               41  21677
## 10  N108UW               60  32070
## # ... with 4,027 more rows

4.Look at the number of cancelled flights per day. Is there a pattern? Is the proportion of cancelled flights related to the average delay?

cancelled_flights_per_day <- flights %>%
                            group_by(year, month, day) %>%
                            summarize(
                            count_flights = n(), 
                            count_cancelled_flights = sum(is.na(dep_delay)),
                            average_delay = mean(dep_delay,na.rm = TRUE),
                            prop_cancelled_flights = count_cancelled_flights/count_flights 
                   )
cancelled_flights_per_day

## # A tibble: 365 x 7
## # Groups:   year, month [?]
##     year month   day count_flights count_cancelled_flights average_delay
##    <int> <int> <int>         <int>                   <int>         <dbl>
##  1  2013     1     1           842                       4     11.548926
##  2  2013     1     2           943                       8     13.858824
##  3  2013     1     3           914                      10     10.987832
##  4  2013     1     4           915                       6      8.951595
##  5  2013     1     5           720                       3      5.732218
##  6  2013     1     6           832                       1      7.148014
##  7  2013     1     7           933                       3      5.417204
##  8  2013     1     8           899                       4      2.553073
##  9  2013     1     9           902                       5      2.276477
## 10  2013     1    10           932                       3      2.844995
## # ... with 355 more rows, and 1 more variables:
## #   prop_cancelled_flights <dbl>
…
destinations with worst delay

carriers_worst_delay_dest <- flights %>%
                              group_by(dest) %>%
                              summarize(count = n(), 
                                  delay = mean(arr_delay, na.rm = TRUE),
                                  proportion_delay = delay/count
                                  ) %>%
                              arrange(desc(proportion_delay))

carriers_worst_delay_dest

## # A tibble: 105 x 4
##     dest count     delay proportion_delay
##    <chr> <int>     <dbl>            <dbl>
##  1   JAC    25 28.095238        1.1238095
##  2   SBN    10  6.500000        0.6500000
##  3   EYW    17  6.352941        0.3737024
##  4   CAE   116 41.764151        0.3600358
##  5   BZN    36  7.600000        0.2111111
##  6   CHO    52  9.500000        0.1826923
##  7   HDN    15  2.142857        0.1428571
##  8   TVC   101 12.968421        0.1284002
##  9   MTJ    15  1.785714        0.1190476
## 10   TUL   315 33.659864        0.1068567
## # ... with 95 more rows
…
delays arranged by carrier and destination

carriers_worst_delay_carrierdest <- flights %>%
                          
                        group_by(carrier,dest) %>%
                        summarize(count = n(),
                                delay = mean(arr_delay, na.rm = TRUE),
                                proportion_delay = delay/count 
                        ) %>%
                      
                       arrange(desc(proportion_delay))

 carriers_worst_delay_carrierdest

## # A tibble: 314 x 5
## # Groups:   carrier [16]
##    carrier  dest count     delay proportion_delay
##      <chr> <chr> <int>     <dbl>            <dbl>
##  1      OO   ORD     1 107.00000       107.000000
##  2      UA   RDU     1  56.00000        56.000000
##  3      UA   STL     2 110.00000        55.000000
##  4      OO   DTW     2  68.50000        34.250000
##  5      9E   GSO     1  13.00000        13.000000
##  6      9E   MSN     1  12.00000        12.000000
##  7      VX   SJC     1  11.00000        11.000000
##  8      EV   ORD     2  17.50000         8.750000
##  9      UA   CLT     2  14.50000         7.250000
## 10      EV   PBI     6  40.66667         6.777778
## # ... with 304 more rows
…
print(as_tibble(mtcars))

## # A tibble: 32 x 11
##      mpg   cyl  disp    hp  drat    wt  qsec    vs    am  gear  carb
##  * <dbl> <dbl> <dbl> <dbl> <dbl> <dbl> <dbl> <dbl> <dbl> <dbl> <dbl>
##  1  21.0     6 160.0   110  3.90 2.620 16.46     0     1     4     4
##  2  21.0     6 160.0   110  3.90 2.875 17.02     0     1     4     4
##  3  22.8     4 108.0    93  3.85 2.320 18.61     1     1     4     1
##  4  21.4     6 258.0   110  3.08 3.215 19.44     1     0     3     1
##  5  18.7     8 360.0   175  3.15 3.440 17.02     0     0     3     2
##  6  18.1     6 225.0   105  2.76 3.460 20.22     1     0     3     1
##  7  14.3     8 360.0   245  3.21 3.570 15.84     0     0     3     4
##  8  24.4     4 146.7    62  3.69 3.190 20.00     1     0     4     2
##  9  22.8     4 140.8    95  3.92 3.150 22.90     1     0     4     2
## 10  19.2     6 167.6   123  3.92 3.440 18.30     1     0     4     4
## # ... with 22 more rows
…
df_tibble[, c("abc", "xyz")]

## # A tibble: 1 x 2
##     abc    xyz
##   <dbl> <fctr>
## 1     1      a

3.If you have the name of a variable stored in an object, e.g.var <- mpg, how can you extract the reference variable from a tibble?

tibble_mtcars <- as_tibble(mtcars)
var <- "mpg"
tibble_mtcars[var]

## # A tibble: 32 x 1
##      mpg
##    <dbl>
##  1  21.0
##  2  21.0
##  3  22.8
##  4  21.4
##  5  18.7
##  6  18.1
##  7  14.3
##  8  24.4
##  9  22.8
## 10  19.2
## # ... with 22 more rows
…
