COMPSCIX 415.2 Homework 6
…
#The graph below shows the Visualization of smoking status and outcome(ignoring age). If I compare the graph between smokers and non-smokers, the proportion of women dead (who were non-smokers) is more than proportion of women dead (who were smokers) . In other words, I see an increaded mortality rate for non-smoking women compared to smoking wome, which doesnt seem to make sense.

#Whickham_1 <- Whickham %>% mutate(age_fct) %>% group_by(age) %>% arrange(age)
#Whickham_1

smoker_outcome <- Whickham %>%
                      group_by(smoker, outcome, age) %>%
                      arrange(smoker, outcome, age) %>%
                      summarize(
                        count = n()
                      )
smoker_outcome

## # A tibble: 205 x 4
## # Groups:   smoker, outcome [?]
##    smoker outcome   age count
##    <fctr>  <fctr> <int> <int>
##  1     No   Alive    18    10
##  2     No   Alive    19     8
##  3     No   Alive    20    11
##  4     No   Alive    21     8
##  5     No   Alive    22     8
##  6     No   Alive    23    12
##  7     No   Alive    24    14
##  8     No   Alive    25    14
##  9     No   Alive    26    13
## 10     No   Alive    27    19
## # ... with 195 more rows
…
4.Recode the age variable into an ordered factor with three categories: age <= 44, age > 44 & age <= 64, and age > 64. Now, recreate visualization from above, but facet on your new age factor. What do you see? Does it make sense?

#Creating age factor with three levels
age_cat <- case_when(Whickham$age <= 44 ~ '<=44',
                   Whickham$age > 44 & Whickham$age <= 64 ~ '44<age<=64',
                   Whickham$age > 64 ~ '>64')

age_fct <- factor(age_cat, ordered = TRUE)

Whickham_1 <- Whickham %>% mutate(age_fct) %>% group_by(age) %>% arrange(age)
Whickham_1

## # A tibble: 1,314 x 4
## # Groups:   age [67]
##    outcome smoker   age age_fct
##     <fctr> <fctr> <int>   <ord>
##  1   Alive    Yes    18    <=44
##  2   Alive     No    18    <=44
##  3   Alive    Yes    18    <=44
##  4   Alive    Yes    18    <=44
##  5   Alive    Yes    18    <=44
##  6   Alive     No    18    <=44
##  7   Alive     No    18    <=44
##  8   Alive     No    18    <=44
##  9   Alive     No    18    <=44
## 10   Alive     No    18    <=44
## # ... with 1,304 more rows
…
Exercise 2

The Central Limit Theorem states that the sampling distribution of sample means is approximately Normal, regardless of the distribution of your population. For this exercise our population distribution will be a Gamma(1,2) distribution, and well show that the sampling distribution of the mean is in fact normally distributed.

1.Generate a random sample of size n = 10000 from a gamma(1,2) distribution and plot a histogram or density curve. Use the code below to help you get your sample.

n <- 10000

# look at ?rgamma to read about this function
gamma_samp <- tibble(random_x = rgamma(n, shape = 1, scale = 2))
gamma_samp

## # A tibble: 10,000 x 1
##     random_x
##        <dbl>
##  1 1.5560724
##  2 0.2583379
##  3 2.6536021
##  4 2.5046402
##  5 3.9886595
##  6 0.6637169
##  7 1.6036764
##  8 0.5198001
##  9 1.6683844
## 10 0.7410406
## # ... with 9,990 more rows
…
## [1] 2.013473

#mean_samp <- gamma_samp %>% .[['random_x']] %>% mean()
#mean_samp

3.Pretend the distribution of our population of data looks like the plot above. Now take a sample of size n = 30 from a Gamma(1,2) distribution, plot the histogram or density curve, and calculate the mean and standard deviation.

#With same size n = 30, mean is 2.20474 and standard deviation 1.421076.
n <- 30

# look at ?rgamma to read about this function
gamma_samp <- tibble(random_x = rgamma(n, shape = 1, scale = 2))
gamma_samp

## # A tibble: 30 x 1
##     random_x
##        <dbl>
##  1 3.7054956
##  2 0.9137294
##  3 0.1221702
##  4 1.3232190
##  5 2.9564298
##  6 2.3279800
##  7 0.5625576
##  8 1.0079756
##  9 1.1012632
## 10 0.7561032
## # ... with 20 more rows
…
# create a vector with 10000 NAs
mean_samp <- rep(NA, 10000)

# start a loop
for(i in 1:10000) {
  g_samp <- rgamma(30, shape = 1, scale = 2)
  mean_samp[i] <- mean(g_samp)
}

# Convert vector to a tibble
mean_samp <- tibble(mean_samp)
mean_samp

## # A tibble: 10,000 x 1
##    mean_samp
##        <dbl>
##  1  1.813837
##  2  2.420151
##  3  2.473652
##  4  2.335760
##  5  2.229169
##  6  1.896802
##  7  2.386777
##  8  1.921384
##  9  2.170629
## 10  1.528980
## # ... with 9,990 more rows
…
# create a vector with 10000 NAs
mean_samp <- rep(NA, 10000)

# start a loop
for(i in 1:10000) {
  g_samp <- rgamma(300, shape = 1, scale = 2)
  mean_samp[i] <- mean(g_samp)
}

# Convert vector to a tibble
mean_samp <- tibble(mean_samp)
mean_samp

## # A tibble: 10,000 x 1
##    mean_samp
##        <dbl>
##  1  1.965677
##  2  1.874114
##  3  2.004592
##  4  1.835056
##  5  1.806979
##  6  2.146678
##  7  1.903563
##  8  2.069622
##  9  2.092103
## 10  1.945944
## # ... with 9,990 more rows
…
