MidtermCOMPSCIX 415.2 Homework 5/Midterm
…
## # A tibble: 6 x 4
##       country  year  cases population
## *       <chr> <int>  <int>      <int>
## 1 Afghanistan  1999    745   19987071
## 2 Afghanistan  2000   2666   20595360
## 3      Brazil  1999  37737  172006362
## 4      Brazil  2000  80488  174504898
## 5       China  1999 212258 1272915272
## 6       China  2000 213766 1280428583

2.Create a new column in the diamonds data set called price_per_carat that shows the price of each diamond per carat (hint: divide). Only show me the code, not the output.

mutate(diamonds, price_per_carat = price/carat)

## # A tibble: 53,940 x 11
##    carat       cut color clarity depth table price     x     y     z
##    <dbl>     <ord> <ord>   <ord> <dbl> <dbl> <int> <dbl> <dbl> <dbl>
##  1  0.23     Ideal     E     SI2  61.5    55   326  3.95  3.98  2.43
##  2  0.21   Premium     E     SI1  59.8    61   326  3.89  3.84  2.31
##  3  0.23      Good     E     VS1  56.9    65   327  4.05  4.07  2.31
##  4  0.29   Premium     I     VS2  62.4    58   334  4.20  4.23  2.63
##  5  0.31      Good     J     SI2  63.3    58   335  4.34  4.35  2.75
##  6  0.24 Very Good     J    VVS2  62.8    57   336  3.94  3.96  2.48
##  7  0.24 Very Good     I    VVS1  62.3    57   336  3.95  3.98  2.47
##  8  0.26 Very Good     H     SI1  61.9    55   337  4.07  4.11  2.53
##  9  0.22      Fair     E     VS2  65.1    61   337  3.87  3.78  2.49
## 10  0.23 Very Good     H     VS1  59.4    61   338  4.00  4.05  2.39
## # ... with 53,930 more rows, and 1 more variables: price_per_carat <dbl>
…
tx_housing_tibble <- as_tibble(txhousing)
tx_housing_tibble

## # A tibble: 8,602 x 9
##       city  year month sales   volume median listings inventory     date
##      <chr> <int> <int> <dbl>    <dbl>  <dbl>    <dbl>     <dbl>    <dbl>
##  1 Abilene  2000     1    72  5380000  71400      701       6.3 2000.000
##  2 Abilene  2000     2    98  6505000  58700      746       6.6 2000.083
##  3 Abilene  2000     3   130  9285000  58100      784       6.8 2000.167
##  4 Abilene  2000     4    98  9730000  68600      785       6.9 2000.250
##  5 Abilene  2000     5   141 10590000  67300      794       6.8 2000.333
##  6 Abilene  2000     6   156 13910000  66900      780       6.6 2000.417
##  7 Abilene  2000     7   152 12635000  73500      742       6.2 2000.500
##  8 Abilene  2000     8   131 10710000  75000      765       6.4 2000.583
##  9 Abilene  2000     9   104  7615000  64500      771       6.5 2000.667
## 10 Abilene  2000    10   101  7040000  59300      764       6.6 2000.750
## # ... with 8,592 more rows

time_frame_txhousing <- txhousing %>% select(year, month) %>% arrange() %>% unique()

time_frame_txhousing

## # A tibble: 187 x 2
##     year month
##    <int> <int>
##  1  2000     1
##  2  2000     2
##  3  2000     3
##  4  2000     4
##  5  2000     5
##  6  2000     6
##  7  2000     7
##  8  2000     8
##  9  2000     9
## 10  2000    10
## # ... with 177 more rows

2.How many cities are represented?

#46 cities are represented. The list of cities shown in the output below.

cities <- txhousing %>% select(city) %>% unique() 
cities 

## # A tibble: 46 x 1
##                     city
##                    <chr>
##  1               Abilene
##  2              Amarillo
##  3             Arlington
##  4                Austin
##  5              Bay Area
##  6              Beaumont
##  7       Brazoria County
##  8           Brownsville
##  9 Bryan-College Station
## 10         Collin County
## # ... with 36 more rows
…
## # A tibble: 1 x 1
##       n
##   <int>
## 1    46

3.Which city, month and year had the highest number of sales?

#City of Houston , in month of July in year 2015 had the highest sale of 8945 properties.
txhousing_sales_desc <- txhousing %>%
                           arrange(desc(sales)) 
txhousing_sales_desc

## # A tibble: 8,602 x 9
##       city  year month sales     volume median listings inventory     date
##      <chr> <int> <int> <dbl>      <dbl>  <dbl>    <dbl>     <dbl>    <dbl>
##  1 Houston  2015     7  8945 2568156780 217600    23875       3.4 2015.500
##  2 Houston  2006     6  8628 1795898108 155200    36281       5.6 2006.417
##  3 Houston  2013     7  8468 2168720825 187800    21497       3.3 2013.500
##  4 Houston  2015     6  8449 2490238594 222400    22311       3.2 2015.417
##  5 Houston  2013     5  8439 2121508529 186100    20526       3.3 2013.333
##  6 Houston  2014     6  8391 2342443127 211200    19725       2.9 2014.417
##  7 Houston  2014     7  8391 2278932511 199700    20214       3.0 2014.500
##  8 Houston  2014     8  8167 2195184825 202400    20007       2.9 2014.583
##  9 Houston  2013     8  8155 2083377894 186700    21366       3.3 2013.583
## 10 Houston  2006     5  8040 1602621368 151200    35398       5.5 2006.333
## # ... with 8,592 more rows
…
## # A tibble: 1 x 4
##      city month  year sales
##     <chr> <int> <int> <dbl>
## 1 Houston     7  2015  8945

4.What kind of relationship do you think exists between the number of listings and the number of sales? Check your assumption and show your work.

#The number of sales is directly related to the number of listings. An increase in the number of listings means increase in the number of sales. Below plot of sales vs listings illustrate that.

txhousing_listings_ascending <- txhousing %>%
                                arrange(listings)
txhousing_listings_ascending

## # A tibble: 8,602 x 9
##           city  year month sales   volume median listings inventory
##          <chr> <int> <int> <dbl>    <dbl>  <dbl>    <dbl>     <dbl>
##  1     Midland  2010     2   100 19880017 175400        0       0.0
##  2  San Marcos  2013     8    33  7257402 170000       35       1.6
##  3 Nacogdoches  2003     5    31  3305000  98300       54       1.8
##  4 Nacogdoches  2003     3    19  2270000  95000       61       1.9
##  5 Nacogdoches  2003     4    28  2700000  90000       62       2.0
##  6 Nacogdoches  2002     1    21  1985000  65000       66       2.0
##  7  San Marcos  2014    12    29  5702169 187500       79       3.1
##  8  San Marcos  2014     9    22  4246700 174300       82       3.3
##  9  San Marcos  2015     2    19  3984850 170000       83       3.3
## 10  San Marcos  2015     1    18  3376703 150000       85       3.4
## # ... with 8,592 more rows, and 1 more variables: date <dbl>
…
txhousing_with_missingsale_info <- txhousing %>%
                                   mutate(missing_sale = is.na(sales)) %>%
                                  group_by(city) %>%
                                  summarise(
                                          count_sales = sum(sales, na.rm = TRUE),
                                          count_missing_sales = sum(missing_sale),
                                          prop_missing_sales = mean(missing_sale, na.rm = TRUE)
                                          )
txhousing_with_missingsale_info

## # A tibble: 46 x 4
##                     city count_sales count_missing_sales
##                    <chr>       <dbl>               <int>
##  1               Abilene       28141                   0
##  2              Amarillo       44628                   0
##  3             Arlington       79285                   0
##  4                Austin      373381                   0
##  5              Bay Area       93989                   0
##  6              Beaumont       33110                   0
##  7       Brazoria County       16302                  14
##  8           Brownsville       12121                   2
##  9 Bryan-College Station       34921                   0
## 10         Collin County      202892                   0
## # ... with 36 more rows, and 1 more variables: prop_missing_sales <dbl>
…
6.Looking at only the cities and months with greater than 500 sales:

Are the distributions of the median sales price (column name median), when grouped by city, different? The same? Show your work.

#The distribution of the median sales price is different for every city as shown in facet_wrap graph below. However there is a basic trend in the median sales price for almost all cities; the median sales price has climbed up from year 2015 through 2015.

sales_gt500_cities <- txhousing %>%
                      filter(sales > 500) %>%
                      group_by(city) %>%
                      arrange(city)
sales_gt500_cities

## # A tibble: 1,883 x 9
## # Groups:   city [14]
##         city  year month sales   volume median listings inventory     date
##        <chr> <int> <int> <dbl>    <dbl>  <dbl>    <dbl>     <dbl>    <dbl>
##  1 Arlington  2000     8   507 60875199 103400     1417       3.5 2000.583
##  2 Arlington  2001     5   536 69878959 114400     1592       3.7 2001.333
##  3 Arlington  2001     6   534 67744182 108500     1627       3.8 2001.417
##  4 Arlington  2001     8   505 65080743 113600     1616       3.7 2001.583
##  5 Arlington  2002     5   503 67240236 116100     1741       3.9 2002.333
##  6 Arlington  2002     7   509 66954143 119100     1925       4.4 2002.500
##  7 Arlington  2003     5   502 67131982 118000     2544       5.9 2003.333
##  8 Arlington  2003     7   524 73194692 123500     2799       6.5 2003.500
##  9 Arlington  2003     8   531 72397143 123900     2801       6.4 2003.583
## 10 Arlington  2004     5   527 72401436 118300     2922       6.5 2004.333
## # ... with 1,873 more rows
…
